[2021-03-25 00:16:54.966] [remoteagent] [info] 

*
* Visual Studio Code Server
*
* Reminder: You may only use this software with Visual Studio family products,
* as described in the license https://aka.ms/vscode-remote/license
*


[2021-03-25 00:16:54.966] [remoteagent] [info] Extension host agent started.
[2021-03-25 00:16:55.253] [remoteagent] [info] [127.0.0.1][4c2e0b15][ManagementConnection] New connection established.
[2021-03-25 00:16:55.262] [remoteagent] [info] [127.0.0.1][af3b044d][ExtensionHostConnection] New connection established.
[2021-03-25 00:16:55.484] [remoteagent] [info] [127.0.0.1][af3b044d][ExtensionHostConnection] <89908> Launched Extension Host Process.
[2021-03-25 00:17:02.383] [remoteagent] [error] [File Watcher (chokidar)] Inotify limit reached (ENOSPC)
[2021-03-25 16:29:45.050] [remoteagent] [info] [127.0.0.1][4c2e0b15][ManagementConnection] The client has disconnected, will wait for reconnection 3h before disposing...
[2021-03-25 19:13:36.561] [remoteagent] [info] [127.0.0.1][af3b044d][ExtensionHostConnection] <89908> Extension Host Process exited with code: 0, signal: null.
[2021-03-25 19:13:36.562] [remoteagent] [info] Last EH closed, waiting before shutting down
[2021-03-25 19:18:36.564] [remoteagent] [info] Last EH closed, shutting down
