[2021-04-03 01:32:30.114] [exthost] [info] extension host started
[2021-04-03 01:32:30.245] [exthost] [info] ExtensionService#_doActivateExtension vscode.debug-auto-launch {"startup":true,"extensionId":{"value":"vscode.debug-auto-launch","_lower":"vscode.debug-auto-launch"},"activationEvent":"*"}
[2021-04-03 01:32:30.246] [exthost] [info] ExtensionService#loadCommonJSModule file:///var/www/fakhri/.vscode-server/bin/c185983a683d14c396952dd432459097bc7f757f/extensions/debug-auto-launch/dist/extension
[2021-04-03 01:32:30.262] [exthost] [info] ExtensionService#_doActivateExtension vscode.git {"startup":true,"extensionId":{"value":"vscode.github","_lower":"vscode.github"},"activationEvent":"*"}
[2021-04-03 01:32:30.262] [exthost] [info] ExtensionService#loadCommonJSModule file:///var/www/fakhri/.vscode-server/bin/c185983a683d14c396952dd432459097bc7f757f/extensions/git/dist/main
[2021-04-03 01:32:30.433] [exthost] [info] ExtensionService#_doActivateExtension vscode.npm {"startup":true,"extensionId":{"value":"vscode.npm","_lower":"vscode.npm"},"activationEvent":"workspaceContains:package.json"}
[2021-04-03 01:32:30.433] [exthost] [info] ExtensionService#loadCommonJSModule file:///var/www/fakhri/.vscode-server/bin/c185983a683d14c396952dd432459097bc7f757f/extensions/npm/dist/npmMain
[2021-04-03 01:32:30.793] [exthost] [info] ExtensionService#_doActivateExtension vscode.github {"startup":true,"extensionId":{"value":"vscode.github","_lower":"vscode.github"},"activationEvent":"*"}
[2021-04-03 01:32:30.793] [exthost] [info] ExtensionService#loadCommonJSModule file:///var/www/fakhri/.vscode-server/bin/c185983a683d14c396952dd432459097bc7f757f/extensions/github/dist/extension.js
[2021-04-03 01:32:31.136] [exthost] [info] ExtensionService#_doActivateExtension ms-vscode.js-debug {"startup":false,"extensionId":{"value":"ms-vscode.js-debug","_lower":"ms-vscode.js-debug"},"activationEvent":"onCommand:extension.js-debug.clearAutoAttachVariables"}
[2021-04-03 01:32:31.136] [exthost] [info] ExtensionService#loadCommonJSModule file:///var/www/fakhri/.vscode-server/bin/c185983a683d14c396952dd432459097bc7f757f/extensions/ms-vscode.js-debug/src/extension.js
[2021-04-03 01:32:32.282] [exthost] [warning] [Decorations] CAPPING events from decorations provider vscode.git 1284
[2021-04-03 01:32:34.277] [exthost] [info] ExtensionService#_doActivateExtension vscode.emmet {"startup":false,"extensionId":{"value":"vscode.emmet","_lower":"vscode.emmet"},"activationEvent":"onStartupFinished"}
[2021-04-03 01:32:34.277] [exthost] [info] ExtensionService#loadCommonJSModule file:///var/www/fakhri/.vscode-server/bin/c185983a683d14c396952dd432459097bc7f757f/extensions/emmet/dist/node/emmetNodeMain
[2021-04-03 01:32:34.323] [exthost] [info] ExtensionService#_doActivateExtension vscode.merge-conflict {"startup":false,"extensionId":{"value":"vscode.merge-conflict","_lower":"vscode.merge-conflict"},"activationEvent":"onStartupFinished"}
[2021-04-03 01:32:34.324] [exthost] [info] ExtensionService#loadCommonJSModule file:///var/www/fakhri/.vscode-server/bin/c185983a683d14c396952dd432459097bc7f757f/extensions/merge-conflict/dist/mergeConflictMain
[2021-04-03 01:32:34.336] [exthost] [info] ExtensionService#_doActivateExtension vscode.testing-editor-contributions {"startup":false,"extensionId":{"value":"vscode.testing-editor-contributions","_lower":"vscode.testing-editor-contributions"},"activationEvent":"onStartupFinished"}
[2021-04-03 01:32:34.336] [exthost] [info] ExtensionService#loadCommonJSModule file:///var/www/fakhri/.vscode-server/bin/c185983a683d14c396952dd432459097bc7f757f/extensions/testing-editor-contributions/dist/extension.js
[2021-04-03 01:32:34.339] [exthost] [info] eager extensions activated
[2021-04-03 01:32:37.511] [exthost] [warning] [Decorations] CAPPING events from decorations provider vscode.git 1284
[2021-04-03 01:33:00.614] [exthost] [info] ExtensionService#_doActivateExtension vscode.php-language-features {"startup":false,"extensionId":{"value":"vscode.php-language-features","_lower":"vscode.php-language-features"},"activationEvent":"onLanguage:php"}
[2021-04-03 01:33:00.614] [exthost] [info] ExtensionService#loadCommonJSModule file:///var/www/fakhri/.vscode-server/bin/c185983a683d14c396952dd432459097bc7f757f/extensions/php-language-features/dist/phpMain
[2021-04-03 03:28:46.178] [exthost] [info] ExtensionService#_doActivateExtension vscode.css-language-features {"startup":false,"extensionId":{"value":"vscode.css-language-features","_lower":"vscode.css-language-features"},"activationEvent":"onLanguage:css"}
[2021-04-03 03:28:46.179] [exthost] [info] ExtensionService#loadCommonJSModule file:///var/www/fakhri/.vscode-server/bin/c185983a683d14c396952dd432459097bc7f757f/extensions/css-language-features/client/dist/node/cssClientMain
[2021-04-03 09:24:08.670] [exthost] [info] extension host terminating: renderer disconnected for too long (1)
[2021-04-03 09:24:09.710] [exthost] [info] exiting with code 0
